{
  "Capsule": {
    "percent": 100,
    "fit": [
      "Caldari Navy Command Mindlink",
      "Republic Fleet Command Mindlink",
      "Federation Navy Command Mindlink",
      "Imperial Navy Command Mindlink",
      "Skirmish Command Mindlink",
      "Information Command Mindlink",
      "Shield Command Mindlink",
      "Armored Command Mindlink"
    ]
  },
  "Capsule - Genolution 'Auroral' 197-variant": {
    "percent": 100,
    "fit": [
      "Caldari Navy Command Mindlink",
      "Republic Fleet Command Mindlink",
      "Federation Navy Command Mindlink",
      "Imperial Navy Command Mindlink",
      "Skirmish Command Mindlink",
      "Information Command Mindlink",
      "Shield Command Mindlink",
      "Armored Command Mindlink"
    ]
  },

  "Heretic": {
    "percent": 100,
    "fit": [
      "Interdiction Sphere Launcher I"
    ]
  },
  "Flycatcher": {
    "percent": 100,
    "fit": [
      "Interdiction Sphere Launcher I"
    ]
  },
  "Eris": {
    "percent": 100,
    "fit": [
      "Interdiction Sphere Launcher I"
    ]
  },
  "Sabre": {
    "percent": 100,
    "fit": [
      "Damage Control II",
      "Nanofiber Internal Structure II",
      "Medium F-S9 Regolith Compact Shield Extender",
      "Medium Shield Extender II",
      "5MN Y-T8 Compact Microwarpdrive",
      "J5b Enduring Warp Scrambler",
      "Prototype Cloaking Device I",
      "125mm Gatling AutoCannon II",
      "125mm Light 'Scout' AutoCannon I",
      "Interdiction Sphere Launcher I",
      "Small Polycarbon Engine Housing I",
      "Small Hyperspatial Velocity Optimizer I"
    ]
  },

  "Pontifex": {
    "percent": 100,
    "fit": [
      "Micro Jump Field Generator"
    ]
  },
  "Stork": {
    "percent": 100,
    "fit": [
      "Damage Control II",
      "Nanofiber Internal Structure II",
      "Micro Jump Field Generator",
      "Multispectrum Shield Hardener II",
      "1MN Afterburner II",
      "Medium Shield Extender II",
      "EM Ward Amplifier II",
      "Shield Command Burst II",
      "Defender Launcher I",
      "Small Command Processor I",
      "Small Core Defense Field Extender II",
      "Active Shielding Charge",
      "Shield Extension Charge",
      "Shield Harmonizing Charge"
    ]
  },
  "Magus": {
    "percent": 100,
    "fit": [
      "Micro Jump Field Generator"
    ]
  },
  "Bifrost": {
    "percent": 100,
    "fit": [
      "Micro Jump Field Generator"
    ]
  },

  "Deacon": {
    "percent": 100,
    "fit": [
    ]
  },
  "Kirin": {
    "percent": 100,
    "fit": [
    ]
  },
  "Thalia": {
    "percent": 100,
    "fit": [
    ]
  },
  "Scalpel": {
    "percent": 100,
    "fit": [
      "Power Diagnostic System II",
      "IFFA Compact Damage Control",
      "Nanofiber Internal Structure II",
      "5MN Y-T8 Compact Microwarpdrive",
      "Republic Fleet Medium Shield Extender",
      "Thukker Small Cap Battery",
      "Gistii A-Type Small Remote Shield Booster",
      "Small Capacitor Control Circuit II"
    ]
  },

  "Scimitar": {
    "percent": 100,
    "fit": [
      "Power Diagnostic System II",
      "Capacitor Power Relay II",
      "Multispectrum Shield Hardener II",
      "50MN Y-T8 Compact Microwarpdrive",
      "Large Shield Extender II",
      "Large S95a Scoped Remote Shield Booster",
      "Pithum C-Type Medium Remote Shield Booster",
      "Medium Capacitor Control Circuit II"
    ]
  },
  "Basilisk": {
    "percent": 100,
    "fit": [
      "Damage Control II",
      "Reactor Control Unit II",
      "Large Shield Extender II",
      "Multispectrum Shield Hardener II",
      "50MN Y-T8 Compact Microwarpdrive",
      "EM Shield Hardener II",
      "Large Remote Capacitor Transmitter II",
      "Medium Remote Shield Booster II",
      "Pithum C-Type Medium Remote Shield Booster",
      "Medium Core Defense Field Extender II",
      "Medium Ancillary Current Router I"
    ]
  },
  "Oneiros": {
    "percent": 100,
    "fit": [
      "Damage Control II",
      "1600mm Steel Plates II",
      "Armor EM Hardener II",
      "Armor Explosive Hardener II",
      "Sensor Booster II",
      "Cap Recharger II",
      "50MN Cold-Gas Enduring Microwarpdrive",
      "Medium F-RX Compact Capacitor Booster",
      "Coreli B-Type Small Remote Armor Repairer",
      "Large Solace Scoped Remote Armor Repairer",
      "Medium Ancillary Current Router II",
      "Medium Trimark Armor Pump II",
      "ECCM Script",
      "Scan Resolution Script",
      "Targeting Range Script"
    ]
  },
  "Guardian": {
    "percent": 100,
    "fit": [
      "True Sansha EM Armor Hardener",
      "1600mm Steel Plates II",
      "True Sansha Kinetic Armor Hardener",
      "Imperial Navy Energized Adaptive Nano Membrane",
      "True Sansha Thermal Armor Hardener",
      "Sensor Booster II",
      "50MN Y-T8 Compact Microwarpdrive",
      "Large Inductive Compact Remote Capacitor Transmitter",
      "Large Coaxial Compact Remote Armor Repairer",
      "Medium Inductive Compact Remote Capacitor Transmitter",
      "Medium Coaxial Compact Remote Armor Repairer",
      "Medium Ancillary Current Router II",
      "Medium Trimark Armor Pump II",
      "ECCM Script",
      "Scan Resolution Script",
      "Targeting Range Script",
      "10MN Afterburner II"
    ]
  },

  "Vulture": {
    "percent": 100,
    "fit": [
      "Damage Control II",
      "Power Diagnostic System II",
      "Multispectrum Shield Hardener II",
      "Pith X-Type Anti-EM Shield Hardener",
      "10MN Afterburner II",
      "Republic Fleet Large Shield Extender",
      "Shield Command Burst II",
      "250mm railgun II",
      "Medium Core Defense Field Extender II",
      "Power Diagnostic System II",
      "Shield Extension Charge",
      "Large Shield Extender II",
      "100MN Y-S8 Compact Afterburner",
      "Information Command Burst II",
      "50MN Microwarpdrive II",
      "Shield Harmonizing Charge",
      "Anti-Kinetic Shield Hardener II"
    ]
  },
  "Claymore": {
    "percent": 100,
    "fit": [
      "Damage Control II",
      "Nanofiber Internal Structure II",
      "Multispectrum Shield Hardener II",
      "Shield Command Burst II",
      "Medium Command Processor I",
      "Medium Core Defense Field Extender II",
      "Power Diagnostic System II",
      "Large Shield Extender II",
      "Skirmish Command Burst II",
      "Information Command Burst II",
      "50MN Microwarpdrive II",
      "Power Diagnostic System II",
      "Overdrive Injector System II",
      "50MN Cold-Gas Enduring Microwarpdrive",
      "Pithum C-Type Explosive Deflection Amplifier",
      "Pithum A-Type Kinetic Deflection Amplifier",
      "Light Missile Launcher II",
      "'Arbalest' Heavy Missile Launcher",
      "Active Shielding Charge",
      "Shield Extension Charge",
      "Shield Harmonizing Charge"
    ]
  },

  "Huginn": {
    "percent": 100,
    "fit": [
      "Damage Control II",
      "Power Diagnostic System II",
      "50MN Quad LiF Restrained Microwarpdrive",
      "Federation Navy Stasis Webifier",
      "Republic Fleet Target Painter",
      "Large Shield Extender II",
      "Multispectrum Shield Hardener II",
      "Shadow Serpentis Medium Plasma Smartbomb",
      "Medium Core Defense Field Extender II",
      "100MN Afterburner II",
      "True Sansha Stasis Webifier",
      "425mm AutoCannon II"
    ]
  },
  "Lachesis": {
    "percent": 100,
    "fit": [
      "Damage Control II",
      "Power Diagnostic System II",
      "50MN Quad LiF Restrained Microwarpdrive",
      "Republic Fleet Warp Disruptor",
      "EM Shield Hardener II",
      "Large Shield Extender II",
      "Multispectrum Shield Hardener II",
      "True Sansha Warp Disruptor",
      "Medium Anti-EM Screen Reinforcer II",
      "Medium Core Defense Field Extender II",
      "Medium Capacitor Booster II",
      "100MN Afterburner II",
      "Capacitor Power Relay II",
      "Overdrive Injector System II",
      "Nanofiber Internal Structure II",
      "50MN Cold-Gas Enduring Microwarpdrive",
      "250mm Railgun II"
    ]
  },
  "Rapier": {
    "percent": 100,
    "fit": [
      "Damage Control II",
      "Power Diagnostic System II",
      "Large Shield Extender II",
      "Multispectrum Shield Hardener II",
      "50MN Y-T8 Compact Microwarpdrive",
      "Warp Disruptor II",
      "Stasis Webifier II",
      "Medium 'Vehemence' Shockwave Charge",
      "Cynosural Field Generator I",
      "Covert Cynosural Field Generator I",
      "Covert Ops Cloaking Device II",
      "Medium Core Defense Field Extender II",
      "Inertial Stabilizers II"
    ]
  },
  "Arazu": {
    "percent": 100,
    "fit": [
      "Cynosural Field Generator I"
    ]
  },
  "Falcon": {
    "percent": 100,
    "fit": [
      "Damage Control II",
      "Power Diagnostic System II",
      "Large Shield Extender II",
      "50MN Y-T8 Compact Microwarpdrive",
      "Multispectrum Shield Hardener II",
      "Gravimetric ECM II",
      "Gravimetric ECM II",
      "Warp Disruptor II",
      "Covert Cynosural Field Generator I",
      "Cynosural Field Generator I",
      "Medium EMP Smartbomb II",
      "Medium 'Vehemence' Shockwave Charge",
      "Covert Ops Cloaking Device II",
      "Medium Anti-EM Screen Reinforcer II",
      "Medium Core Defense Field Extender II",
      "Inertial Stabilizers II"
    ]
  },
  "Pilgrim": {
    "percent": 100,
    "fit": [
      "Cynosural Field Generator I"
    ]
  },

  "Legion": {
    "percent": 50,
    "fit": [
      "Imperial Navy 1600mm Steel Plates",
      "Damage Control II",
      "Imperial Navy Energized Adaptive Nano Membrane",
      "Dark Blood Energized Adaptive Nano Membrane",
      "Centus X-Type Armor EM Hardener",
      "Centus X-Type Armor Explosive Hardener",
      "Centus X-Type Armor Kinetic Hardener",
      "Centus X-Type Armor Thermal Hardener",
      "Centum B-Type Medium Armor Repair",
      "Corpum C-Type Medium Armor Repair",
      "50MN Y-T8 Compact Microwarpdrive",
      "100MN Afterburner II",
      "Small Capacitor Booster II",
      "Information Command Burst II",
      "Medium Trimark Armor Pump II",
      "Medium Command Processor I",
      "Medium Capacitor Control Circuit I",
      "Legion Core - Augmented Antimatter Reactor",
      "Legion Defensive - Augmented Plating",
      "Legion Defensive - Nanobot Injector",
      "Legion Offensive - Support Processor",
      "Legion Offensive - Assault Optimization",
      "Legion Propulsion - Intercalated Nanofibers",
      "Legion Propulsion - Wake Limiter"
    ]
  },
  "Loki": {
    "percent": 50,
    "fit": [
      "Imperial Navy 1600mm Steel Plates",
      "Damage Control II",
      "Core X-Type Armor Explosive Hardener",
      "Core X-Type Armor Kinetic Hardener",
      "Corpum C-Type Energized Thermal Membrane",
      "Federation Navy Stasis Webifier",
      "Small Capacitor Booster II",
      "Target Painter II",
      "50MN Cold-Gas Enduring Microwarpdrive",
      "220mm Vulcan AutoCannon II",
      "Covert Ops Cloaking Device II",
      "Corpum C-Type Medium Energy Neutralizer",
      "Small Energy Neutralizer II",
      "Medium Trimark Armor Pump II",
      "Loki Core - Immobility Drivers",
      "Loki Defensive - Augmented Durability",
      "Loki Offensive - Projectile Scoping Array",
      "Loki Propulsion - Intercalated Nanofibers",
      "Nanofiber Internal Structure II",
      "Overdrive Injector System II",
      "Multispectrum Shield Hardener II",
      "Caldari Navy Large Shield Extender",
      "Skirmish Command Burst II",
      "Medium Command Processor I",
      "Medium Core Defense Field Extender II",
      "Loki Offensive - Support Processor",
      "Loki Propulsion - Wake Limiter",
      "Loki Defensive - Covert Reconfiguration",
      "Auto Targeting System II"
    ]
  },
  "Proteus": {
    "percent": 50,
    "fit": [
      "1600mm Steel Plates II",
      "Energized Adaptive Nano Membrane II",
      "Damage Control II",
      "Core C-Type Armor Explosive Hardener",
      "Corelum C-Type Energized EM Membrane",
      "Centum C-Type Energized Thermal Membrane",
      "Overdrive Injector System II",
      "Republic Fleet Warp Disruptor",
      "50MN Cold-Gas Enduring Microwarpdrive",
      "Medium Cap Battery II",
      "Medium Trimark Armor Pump II",
      "Proteus Core - Friction Extension Processor",
      "Proteus Defensive - Augmented Plating",
      "Proteus Offensive - Hybrid Encoding Platform",
      "Proteus Propulsion - Hyperspatial Optimization"
    ]
  },

  "Devoter": {
    "percent": 100,
    "fit": [
      "Warp Disruption Field Generator I",
      "Warp Disruption Field Generator II",
      "Damage Control II",
      "1600mm Steel Plates II",
      "Armor EM Hardener II",
      "Thermal Armor Hardener II",
      "Armor Kinetic Hardener II",
      "Energized Adaptive Nano Membrane II",
      "10MN Afterburner II",
      "50MN Quad LiF Restrained Microwarpdrive",
      "Small Capacitor Booster II",
      "Entosis Link I",
      "Medium Trimark Armor Pump II"
    ]
  },
  "Onyx": {
    "percent": 100,
    "fit": [
      "Damage Control II",
      "Power Diagnostic System II",
      "100MN Monopropellant Enduring Afterburner",
      "Multispectrum Shield Hardener II",
      "Republic Fleet Large Shield Extender",
      "Large Shield Extender II",
      "EM Shield Hardener II",
      "Pitfall Compact Warp Disruption Field Generator",
      "'Arbalest' Rocket Launcher I",
      "Rocket Launcher II",
      "Medium Core Defense Field Extender II",
      "Warp Disruption Field Generator I",
      "Warp Disruption Field Generator II"
    ]
  },
  "Phobos": {
    "percent": 100,
    "fit": [
      "Warp Disruption Field Generator I",
      "Warp Disruption Field Generator II",
      "Damage Control II",
      "1600mm Steel Plates II",
      "Armor EM Hardener II",
      "Armor Explosive Hardener II",
      "10MN Afterburner II",
      "50MN Y-T8 Compact Microwarpdrive",
      "Small Capacitor Booster II",
      "Phased Scoped Target Painter",
      "Medium Trimark Armor Pump II"
    ]
  },
  "Broadsword": {
    "percent": 100,
    "fit": [
      "Warp Disruption Field Generator I",
      "Warp Disruption Field Generator II",
      "IFFA Compact Damage Control",
      "Nanofiber Internal Structure II",
      "Overdrive Injector System II",
      "50MN Y-T8 Compact Microwarpdrive",
      "Large Shield Extender II",
      "Multispectrum Shield Hardener II",
      "Pithum B-Type Kinetic Deflection Amplifier",
      "Light Missile Launcher II",
      "Medium Core Defense Field Extender II"
    ]
  },

  "Ferox": {
    "percent": 50,
    "fit": [
      "Damage Control II",
      "Magnetic Field Stabilizer II",
      "Power Diagnostic System II",
      "Large Shield Extender II",
      "Multispectrum Shield Hardener II",
      "50MN Cold-Gas Enduring Microwarpdrive",
      "Small Capacitor Booster II",
      "Cap Recharger II",
      "EM Shield Hardener II",
      "Drone Link Augmentor II",
      "250mm Railgun II",
      "250mm Prototype Gauss Gun",
      "Medium Thermal Shield Reinforcer II",
      "Medium Hybrid Locus Coordinator II",
      "Medium Anti-EM Screen Reinforcer I",
      "Medium Ionic Field Projector I",
      "Medium Anti-Thermal Screen Reinforcer I"
    ]
  },
  "Rokh": {
    "percent": 50,
    "fit": [
      "Damage Control II",
      "Magnetic Field Stabilizer II",
      "Tracking Enhancer II",
      "Large Shield Extender II",
      "Multispectrum Shield Hardener II",
      "Large Micro Jump Drive",
      "Sensor Booster II",
      "500MN Cold-Gas Enduring Microwarpdrive",
      "Medium Capacitor Booster II",
      "425mm Railgun II",
      "425mm Prototype Gauss Gun",
      "Large Hybrid Locus Coordinator I",
      "Large Ancillary Current Router I",
      "Large Core Defense Field Extender I"
    ]
  },
  "Eagle": {
    "percent": 50,
    "fit": [
      "Assault Damage Control II",
      "Magnetic Field Stabilizer II",
      "Power Diagnostic System II",
      "Large Shield Extender II",
      "Republic Fleet Large Shield Extender",
      "10MN Afterburner II",
      "Multispectrum Shield Hardener II",
      "Small Capacitor Booster II",
      "EM Shield Hardener II",
      "250mm Railgun II",
      "250mm Prototype Gauss Gun",
      "Medium Core Defense Field Extender II"
    ]
  },
  "Hurricane": {
    "percent": 50,
    "fit": [
      "Reactor Control Unit II",
      "Damage Control II",
      "Gyrostabilizer II",
      "Tracking Enhancer II",
      "Large Shield Extender II",
      "Multispectrum Shield Hardener II",
      "50MN Cold-Gas Enduring Microwarpdrive",
      "720mm Howitzer Artillery II",
      "720mm 'Scout' Artillery I",
      "Small Energy Neutralizer II",
      "Medium Core Defense Field Extender I"
    ]
  },
  "Machariel": {
    "percent": 50,
    "fit": [
      "Damage Control II",
      "Gyrostabilizer II",
      "Tracking Enhancer II",
      "Reactor Control Unit II",
      "500MN Cold-Gas Enduring Microwarpdrive",
      "Large Shield Extender II",
      "Multispectrum Shield Hardener II",
      "EM Shield Hardener II",
      "Anti-Kinetic Shield Hardener II",
      "Thermal Shield Hardener II",
      "1400mm Howitzer Artillery II",
      "1400mm 'Scout' Artillery I",
      "800mm Heavy 'Scout' Repeating Cannon I",
      "800mm Repeating Cannon II",
      "Large 'Vehemence' Shockwave Charge",
      "Heavy Infectious Scoped Energy Neutralizer",
      "Large Core Defense Field Extender I",
      "1600mm Steel Plates II",
      "True Sansha Explosive Armor Hardener",
      "True Sansha Kinetic Armor Hardener",
      "True Sansha Thermal Armor Hardener",
      "Tracking Computer II",
      "Tracking Disruptor II",
      "Medium Capacitor Booster II",
      "Large Ancillary Current Router I",
      "Large Trimark Armor Pump I"
    ]
  },
  "Cerberus": {
    "percent": 50,
    "fit": [
      "Assault Damage Control II",
      "Ballistic Control System II",
      "50MN Cold-Gas Enduring Microwarpdrive",
      "50MN Y-T8 Compact Microwarpdrive",
      "Large Shield Extender II",
      "Multispectrum Shield Hardener II",
      "EM Shield Hardener II",
      "EM Ward Amplifier II",
      "Heavy Missile Launcher II",
      "'Arbalest' Heavy Missile Launcher",
      "Medium Core Defense Field Extender II"
    ]
  },
  "Phantasm": {
    "percent": 50,
    "fit": [
      "Heat Sink II",
      "Damage Control II",
      "Tracking Enhancer II",
      "Co-Processor II",
      "Capacitor Flux Coil II",
      "Large Shield Extender II",
      "Multispectrum Shield Hardener II",
      "10MN Monopropellant Enduring Afterburner",
      "10MN Y-S8 Compact Afterburner",
      "EM Ward Amplifier II",
      "Heavy Beam Laser II",
      "Heavy Modulated Energy Beam I",
      "Medium Thermal Shield Reinforcer II",
      "Medium Energy Locus Coordinator II",
      "Medium Core Defense Field Extender I"
    ]
  },
  "Ishtar": {
    "percent": 50,
    "fit": [
      "Imperial Navy 1600mm Steel Plates",
      "Adaptive Nano Plating II",
      "True Sansha EM Armor Hardener",
      "Assault Damage Control II",
      "True Sansha Explosive Armor Hardener",
      "Drone Damage Amplifier II",
      "50MN Cold-Gas Enduring Microwarpdrive",
      "Tracking Disruptor II",
      "Drone Navigation Computer II",
      "Drone Link Augmentor II",
      "Medium Trimark Armor Pump II"
    ]
  },
  "Muninn": {
    "percent": 50,
    "fit": [
      "Tracking Enhancer II",
      "Power Diagnostic System II",
      "Mark I Compact Power Diagnostic System",
      "Gyrostabilizer II",
      "Assault Damage Control II",
      "50MN Y-T8 Compact Microwarpdrive",
      "50MN Quad Lif Restrained Microwarpdrive",
      "Large Shield Extender II",
      "Multispectrum Shield Hardener II",
      "720mm Howitzer Artillery II",
      "720mm 'Scout' Artillery I",
      "Medium Core Defense Field Extender II"
    ]
  },
  "Drekavac": {
    "percent": 50,
    "fit": [
      "Damage Control II",
      "True Sansha Explosive Armor Hardener",
      "True Sansha Kinetic Armor Hardener",
      "Thermal Armor Hardener II",
      "Energized Adaptive Nano Membrane II",
      "Entropic Radiation Sink II",
      "Federation Navy 10MN Afterburner",
      "Large Compact Pb-Acid Cap Battery",
      "Faint Epsilon Scoped Warp Scrambler",
      "Tracking Computer II",
      "Heavy Entropic Disintegrator II",
      "Heavy Scoped Entropic Disintegrator",
      "Medium Gremlin Compact Energy Neutralizer",
      "Armor Command Burst II",
      "Medium Trimark Armor Pump II"
    ]
  },

  "Minokawa": {
    "percent": 100,
    "fit": [
      "Damage Control II",
      "Co-Processor II",
      "Reactor Control Unit II",
      "CONCORD Capital Shield Booster",
      "Multispectrum Shield Hardener II",
      "Shield Boost Amplifier II",
      "Capital Capacitor Booster II",
      "Capital Remote Shield Booster II",
      "CONCORD Capital Remote Capacitor Transmitter",
      "Triage Module I",
      "Triage Module II",
      "Large EMP Smartbomb II",
      "Capital EM Shield Reinforcer II",
      "Capital Core Defense Capacitor Safeguard II",
      "Capital Core Defense Operational Solidifier I"
    ]
  },
  "Lif": {
    "percent": 100,
    "fit": [
      "Caldari Navy Power Diagnostic System",
      "'Dyad' Co-Processor I",
      "Capital Shield Booster II",
      "Gist X-Type Shield Boost Amplifier",
      "Multispectrum Shield Hardener II",
      "Capital Capacitor Booster I",
      "Cap Booster 3200",
      "Triage Module I",
      "Triage Module II",
      "Capital Asymmetric Enduring Remote Shield Booster",
      "Capital Core Defense Operational Solidifier I",
      "Capital EM Shield Reinforcer II",
      "Capital Thermal Shield Reinforcer II"
    ]
  },

  "Naglfar": {
    "percent": 100,
    "fit": [
      "Damage Control II",
      "Gyrostabilizer II",
      "Tracking Enhancer II",
      "Co-Processor II",
      "Capital Indefatigable Enduring Emergency Hull Energizer",
      "Power Diagnostic System II",
      "Signal Amplifier II",
      "Capital F-S9 Regolith Compact Shield Extender",
      "Capital Azeotropic Restrained Shield Extender",
      "Capital Shield Booster II",
      "Capital Shield Extender II",
      "Multispectrum Shield Hardener II",
      "EM Shield Hardener II",
      "Tracking Computer II",
      "Sensor Booster II",
      "Capital Capacitor Booster I",
      "Siege Module I",
      "Siege Module II",
      "Hexa 2500mm Repeating Cannon I",
      "Hexa 2500mm Repeating Cannon II",
      "Quad 3500mm Siege Artillery I",
      "Capital Infectious Scoped Energy Neutralizer",
      "Capital Core Defense Field Extender I"
    ]
  },
  "Moros": {
    "percent": 100,
    "fit": [
      "25000mm Crystalline Carbonide Restrained Plates",
      "Capital Indefatigable Enduring Emergency Hull Energizer",
      "Energized Adaptive Nano Membrane II",
      "Damage Control II",
      "25000mm Steel Plates II",
      "Capital Armor Repairer I",
      "Magnetic Field Stabilizer II",
      "Imperial Navy Energized Adaptive Nano Membrane",
      "Capital Flex Armor Hardener II",
      "Capital Capacitor Booster II",
      "Cap Booster 3200",
      "Navy Cap Booster 3200",
      "Large Cap Battery II",
      "Tracking Computer II",
      "Siege Module I",
      "Siege Module II",
      "Ion Siege Blaster I",
      "Ion Siege Blaster II",
      "Capital Trimark Armor Pump I",
      "Imperial Navy Energized Adaptive Nano Membrane",
      "Heavy Capacitor Booster II"
    ]
  },
  "Phoenix": {
    "percent": 100,
    "fit": [
      "Ballistic Control System II",
      "Co-Processor II",
      "Damage Control II",
      "Capital Indefatigable Enduring Emergency Hull Energizer",
      "Capital Capacitor Booster II",
      "Cap Booster 3200",
      "Navy Cap Booster 3200",
      "Capital Azeotropic Restrained Shield Extender",
      "Capital Shield Booster II",
      "Shield Boost Amplifier II",
      "Multispectrum Shield Hardener II",
      "EM Shield Hardener II",
      "Missile Guidance Computer II",
      "Siege Module I",
      "Siege Module II",
      "XL Torpedo Launcher I",
      "XL Torpedo Launcher II",
      "Capital Infectious Scoped Energy Neutralizer",
      "Capital Core Defense Field Extender I",
      "Capital Energy Neutralizer I"
    ]
  },
  "Revelation": {
    "percent": 100,
    "fit": [
      "25000mm Steel Plates II",
      "25000mm Crystalline Carbonide Restrained Plates",
      "Capital Indefatigable Enduring Emergency Hull Energizer",
      "Capital Armor Repairer II",
      "Heat Sink II",
      "Imperial Navy Energized Adaptive Nano Membrane",
      "True Sansha Adaptive Nano Plating",
      "Damage Control II",
      "Capital Cap Battery II",
      "Capital Capacitor Booster II",
      "Cap Booster 3200",
      "Navy Cap Booster 3200",
      "Tracking Computer II",
      "Siege Module I",
      "Siege Module II",
      "Dual Giga Pulse Laser I",
      "Dual Giga Pulse Laser II",
      "Capital Trimark Armor Pump I",
      "Capital Infectious Scoped Energy Neutralizer",
      "Capital Emergency Hull Energizer I",
      "Heavy Capacitor Booster II",
      "Capital Energy Neutralizer I"
    ]
  },

  "Chimera": {
    "percent": 50,
    "fit": [
      "Damage Control II",
      "Drone Damage Amplifier II",
      "10000MN Afterburner I",
      "500MN Y-T8 Compact Microwarpdrive",
      "Capital Shield Extender II",
      "EM Shield Hardener II",
      "Multispectrum Shield Hardener II",
      "Drone Navigation Computer II",
      "Networked Sensor Array",
      "Fighter Support Unit I",
      "Capital Energy Neutralizer I",
      "Capital Core Defense Field Extender I"
    ]
  },
  "Nidhoggur": {
    "percent": 50,
    "fit": [
      "Damage Control II",
      "Drone Damage Amplifier II",
      "Omnidirectional Tracking Enhancer II",
      "10000MN Afterburner I",
      "Capital Shield Extender II",
      "EM Shield Hardener II",
      "Multispectrum Shield Hardener II",
      "Drone Navigation Computer II",
      "Networked Sensor Array",
      "Fighter Support Unit I",
      "Capital Energy Neutralizer I",
      "Capital Core Defense Field Extender I",
      "Capital EM Shield Reinforcer II"
    ]
  },

  "Gram I": {
    "percent": 600,
    "fit": [
    ]
  },
  "Siren II": {
    "percent": 150,
    "fit": [
    ]
  },
  "Dragonfly I": {
    "percent": 450,
    "fit": [
    ]
  },
  "Templar II": {
    "percent": 450,
    "fit": [
    ]
  },
  "Einherji II": {
    "percent": 450,
    "fit": [
    ]
  },
  "Malleus II": {
    "percent": 300,
    "fit": [
    ]
  },
  "Cyclops II": {
    "percent": 300,
    "fit": [
    ]
  },
  "Tyrfing II": {
    "percent": 300,
    "fit": [
    ]
  },
  "Dromi II": {
    "percent": 150,
    "fit": [
    ]
  },
  "Ametat II": {
    "percent": 300,
    "fit": [
    ]
  }
}